actionmailer (4.2.1, 4.1.4)
actionpack (4.2.1, 4.1.4)
actionview (4.2.1, 4.1.4)
activejob (4.2.1)
activemodel (4.2.1, 4.1.4)
activerecord (4.2.1, 4.1.4)
activesupport (4.2.1, 4.1.4)
arbre (1.0.3)
arel (6.0.3, 5.0.1.20140414130214)
bcrypt (3.1.11)
bigdecimal (1.2.6)
binding_of_caller (0.7.2)
bootstrap-sass (3.2.0.2)
bourbon (4.2.7)
builder (3.2.2)
bundler (1.11.2)
byebug (8.2.5, 8.2.2)
carrierwave (0.11.2, 0.11.0)
CFPropertyList (2.3.2)
coffee-rails (4.1.1, 4.0.1)
coffee-script (2.4.1, 2.3.0)
coffee-script-source (1.10.0, 1.8.0)
concurrent-ruby (1.0.2, 1.0.1)
daemons (1.2.3)
debug_inspector (0.0.2)
devise (4.1.0, 3.5.9)
diffy (3.1.0)
erubis (2.7.0)
eventmachine (1.2.0.1)
excon (0.49.0)
execjs (2.6.0, 2.2.1)
fission (0.5.0)
fog (1.38.0)
fog-aliyun (0.1.0)
fog-atmos (0.1.0)
fog-aws (0.9.2)
fog-brightbox (0.10.1)
fog-cloudatcost (0.1.2)
fog-core (1.38.0)
fog-dynect (0.0.3)
fog-ecloud (0.3.0)
fog-google (0.1.0)
fog-json (1.0.2)
fog-local (0.3.0)
fog-openstack (0.1.5, 0.1.4)
fog-powerdns (0.1.1)
fog-profitbricks (0.0.5)
fog-rackspace (0.1.1)
fog-radosgw (0.0.5)
fog-riakcs (0.1.0)
fog-sakuracloud (1.7.5)
fog-serverlove (0.1.2)
fog-softlayer (1.1.1, 1.1.0)
fog-storm_on_demand (0.1.1)
fog-terremark (0.1.0)
fog-vmfusion (0.1.0)
fog-voxel (0.1.0)
fog-vsphere (0.6.4)
fog-xenserver (0.2.3)
fog-xml (0.1.2)
font-awesome-rails (4.6.2.0)
formatador (0.2.5)
formtastic (3.1.4)
formtastic_i18n (0.6.0)
globalid (0.3.6)
haml (4.0.7)
has_scope (0.6.0)
hike (1.2.3)
i18n (0.7.0, 0.6.11)
inflecto (0.0.2)
inherited_resources (1.6.0)
io-console (0.4.3)
ipaddress (0.8.3)
jbuilder (2.4.1, 2.1.3)
jquery-rails (4.1.1, 3.1.4, 3.1.2)
jquery-ui-rails (5.0.5)
json (1.8.3, 1.8.1)
kaminari (0.16.3)
loofah (2.0.3)
mail (2.6.4, 2.5.4)
mime-types (3.0, 1.25.1)
mime-types-data (3.2016.0221)
mimemagic (0.3.1)
mini_magick (4.5.1)
mini_portile2 (2.0.0)
minitest (5.8.4, 5.4.3, 5.4.1)
multi_json (1.12.0, 1.11.3, 1.11.2, 1.10.1)
mysql2 (0.4.4, 0.3.20)
nested_form (0.3.2)
nokogiri (1.6.7.2)
orm_adapter (0.5.0)
paper_trail (5.0.1)
paranoia (2.1.5)
polyamorous (1.3.0)
polyglot (0.3.5)
power_assert (0.2.2)
psych (2.0.8)
rack (1.6.4, 1.5.5, 1.5.2)
rack-pjax (0.8.0)
rack-test (0.6.3, 0.6.2)
rails (4.2.1, 4.1.4)
rails-deprecated_sanitizer (1.0.3)
rails-dom-testing (1.0.7)
rails-html-sanitizer (1.0.3)
rails_admin (0.8.1)
railties (4.2.1, 4.1.4)
rake (11.1.2, 10.4.2, 10.3.2)
ransack (1.7.0)
rbvmomi (1.8.2)
rdoc (4.2.2, 4.2.0, 4.1.2)
remotipart (1.2.1)
request_store (1.3.1)
responders (2.2.0)
safe_yaml (1.0.4)
sass (3.4.22, 3.4.21, 3.2.19)
sass-rails (5.0.4, 4.0.5, 4.0.3)
sdoc (0.4.1)
spring (1.7.1, 1.6.4, 1.1.3)
sprockets (3.6.0, 3.5.2, 2.12.4, 2.11.0)
sprockets-rails (3.0.4, 2.3.3, 2.1.4)
sqlite3 (1.3.11, 1.3.9)
test-unit (3.0.8)
thin (1.6.4)
thor (0.19.1)
thread_safe (0.3.5, 0.3.4)
tilt (2.0.2, 1.4.1)
treetop (1.4.15)
trollop (2.1.2)
turbolinks (2.5.3, 2.3.0)
tzinfo (1.2.2)
uglifier (3.0.0, 2.5.3)
warden (1.2.6)
web-console (2.3.0)
xml-simple (1.1.5)
